An advection and first-order exchange model of channel salinity • deltasalinity
…
# Load the data
v <- ganges_params
print(v)
#>        var      param
#> 1   log(a) -12.560625
#> 2   log(b)  -4.207450
#> 3   log(d)  -6.187243
#> 4 log(C_d)  10.463103

streamflow_df <- ganges_streamflow
print(streamflow_df)
#> # A tibble: 362 x 5
#>     year date        yday Q_cumec group     
#>    <dbl> <date>     <dbl>   <dbl> <chr>     
#>  1     1 1998-01-01     1   2970. Treaty avg
#>  2     1 1998-01-02     2   2930. Treaty avg
#>  3     1 1998-01-03     3   2891. Treaty avg
#>  4     1 1998-01-04     4   2874. Treaty avg
#>  5     1 1998-01-05     5   2799. Treaty avg
#>  6     1 1998-01-06     6   2752. Treaty avg
#>  7     1 1998-01-07     7   2737. Treaty avg
#>  8     1 1998-01-08     8   2688. Treaty avg
#>  9     1 1998-01-09     9   2626. Treaty avg
#> 10     1 1998-01-10    10   2563. Treaty avg
#> # … with 352 more rows

# Simulate salinity annually
salinity_results <- sim_salin_annual(streamflow_df, v$param)

The tabulated results are (print(results)):

salinity_results
#> # A tibble: 362 x 3
#>    date       Q_cumec S_ppm
#>    <date>       <dbl> <dbl>
#>  1 1998-01-01   2970.  100 
#>  2 1998-01-02   2930.  100.
#>  3 1998-01-03   2891.  101.
#>  4 1998-01-04   2874.  101.
#>  5 1998-01-05   2799.  102.
#>  6 1998-01-06   2752.  102.
#>  7 1998-01-07   2737.  103.
#>  8 1998-01-08   2688.  104.
#>  9 1998-01-09   2626.  106.
#> 10 1998-01-10   2563.  107.
#> # … with 352 more rows
…
